/*****
*
* Copyright (C) 2005-2012 CS-SI. All Rights Reserved.
* Author: Yoann Vandoorselaere <yoann.v@prelude-ids.com>
*
* This file is part of the Prelude library.
*
* This program is free software; you can redistribute it and/or modify
* it under the terms of the GNU General Public License as published by
* the Free Software Foundation; either version 2, or (at your option)
* any later version.
*
* This program is distributed in the hope that it will be useful,
* but WITHOUT ANY WARRANTY; without even the implied warranty of
* MERCHANTABILITY or FITNESS FOR A PARTICULAR PURPOSE.  See the
* GNU General Public License for more details.
*
* You should have received a copy of the GNU General Public License along
* with this program; if not, write to the Free Software Foundation, Inc.,
* 51 Franklin Street, Fifth Floor, Boston, MA 02110-1301 USA.
*
*****/

%begin %{
#include "config.h"
#include "glthread/thread.h"
%}

# Lua overloading fixes
%ignore IDMEFCriteria(std::string const &);
%ignore IDMEFValue(int8_t);
%ignore IDMEFValue(uint8_t);
%ignore IDMEFValue(int16_t);
%ignore IDMEFValue(uint16_t);
%ignore IDMEFValue(int32_t);
%ignore IDMEFValue(uint32_t);
%ignore IDMEFValue(int64_t);
%ignore IDMEFValue(uint64_t);
%ignore IDMEFValue(float);
%ignore IDMEFValue(std::string);
%ignore Set(Prelude::IDMEF &, int8_t);
%ignore Set(Prelude::IDMEF &, uint8_t);
%ignore Set(Prelude::IDMEF &, int16_t);
%ignore Set(Prelude::IDMEF &, uint16_t);
%ignore Set(Prelude::IDMEF &, int32_t);
%ignore Set(Prelude::IDMEF &, uint32_t);
%ignore Set(Prelude::IDMEF &, int64_t);
%ignore Set(Prelude::IDMEF &, uint64_t);
%ignore Set(Prelude::IDMEF &, float);
%ignore Set(Prelude::IDMEF &, std::string);
%ignore Set(char const *, int8_t);
%ignore Set(char const *, uint8_t);
%ignore Set(char const *, int16_t);
%ignore Set(char const *, uint16_t);
%ignore Set(char const *, int32_t);
%ignore Set(char const *, uint32_t);
%ignore Set(char const *, int64_t);
%ignore Set(char const *, uint64_t);
%ignore Set(char const *, float);
%ignore Set(char const *, std::string);

# Conversion not allowed
%ignore *::operator =;

%ignore *::operator int() const;
%ignore *::operator long() const;
%ignore *::operator int32_t() const;
%ignore *::operator uint32_t() const;
%ignore *::operator int64_t() const;
%ignore *::operator uint64_t() const;
%ignore *::operator float() const;
%ignore *::operator double() const;
%ignore *::operator Prelude::IDMEFTime() const;
%ignore operator <<;
%ignore operator >>;

%rename (__str__) *::operator const char *() const;

%begin %{
#define TARGET_LANGUAGE_OUTPUT_TYPE int *
%}

%header {
        char *my_strdup(const char *in)
        {
                char *out = new char[strlen(in) + 1];
                strcpy(out, in);
                return out;
        }
}

%ignore Prelude::IDMEFCriteria::operator const std::string() const;
%newobject Prelude::IDMEFCriteria::__str__;
%extend Prelude::IDMEFCriteria {
        char *__str__() { return my_strdup(self->ToString().c_str()); }
}

%ignore Prelude::IDMEFTime::operator const std::string() const;
%newobject Prelude::IDMEFTime::__str__;
%extend Prelude::IDMEFTime {
        char *__str__() { return my_strdup(self->ToString().c_str()); }
}

%ignore Prelude::IDMEF::operator const std::string() const;
%newobject Prelude::IDMEF::__str__;
%extend Prelude::IDMEF {
        char *__str__() { return my_strdup(self->ToString().c_str()); }
}



%header %{
int integer2lua(lua_State *L, lua_Number result)
{
        lua_pushnumber(L, (lua_Number) result);
        return 0;
}

int str2lua(lua_State *L, const char *str)
{
        lua_pushstring(L, str);
        return 0;
}

int strsize2lua(lua_State *L, const char *str, size_t len)
{
        lua_pushlstring(L, str, len);
        return 0;
}


int _SWIG_Prelude_NewPointerObj(lua_State *L, void *obj, swig_type_info *objtype, int val)
{
        SWIG_NewPointerObj(L, obj, objtype, val);
        return 0;
}
%}

/* tell squid not to cast void * value */
%typemap(in) void *nocast_p {
        FILE **pf;
        pf = (FILE **)lua_touserdata(L, $input);
        if (pf == NULL) {
                lua_pushstring(L,"Argument is not a file");
                SWIG_fail;
        }
        $1 = *pf;
}

%fragment("TransitionFunc", "header") {
static int __prelude_log_func;
static lua_State *__lua_state = NULL;
static gl_thread_t __initial_thread;

static void _cb_lua_log(int level, const char *str)
{
        if ( (gl_thread_t) gl_thread_self() != __initial_thread )
                return;

        lua_rawgeti(__lua_state, LUA_REGISTRYINDEX, __prelude_log_func);
        lua_pushnumber(__lua_state, level);
        lua_pushstring(__lua_state, str);
        lua_call(__lua_state, 2, 0);
}


static int _cb_lua_write(prelude_msgbuf_t *fd, prelude_msg_t *msg)
{
        size_t ret;
        FILE *f = (FILE *) prelude_msgbuf_get_data(fd);

        ret = fwrite((const char *)prelude_msg_get_message_data(msg), 1, prelude_msg_get_len(msg), f);
        if ( ret != prelude_msg_get_len(msg) )
                return prelude_error_from_errno(errno);

        prelude_msg_recycle(msg);
        return 0;
}


static ssize_t _cb_lua_read(prelude_io_t *fd, void *buf, size_t size)
{
        ssize_t ret;
        FILE *f = (FILE *) prelude_io_get_fdptr(fd);

        ret = fread(buf, 1, size, f);
        if ( ret < 0 )
                ret = prelude_error_from_errno(errno);

        else if ( ret == 0 )
                ret = prelude_error(PRELUDE_ERROR_EOF);

        return ret;
}

};


%typemap(in, fragment="TransitionFunc") void (*log_cb)(int level, const char *log) {
        if ( ! lua_isfunction(L, -1) )
                SWIG_exception(SWIG_ValueError, "Argument should be a function");

        if ( __lua_state )
                luaL_unref(L, LUA_REGISTRYINDEX, __prelude_log_func);

        __prelude_log_func = luaL_ref(L, LUA_REGISTRYINDEX);
        $1 = _cb_lua_log;
        __lua_state = L;
};


%exception {
        try {
                $action
        } catch(Prelude::PreludeError &e) {
                SWIG_exception(SWIG_RuntimeError, e.what());
                SWIG_fail;
        }
}

%exception Read(void *nocast_p) {
        try {
                $action
        } catch(Prelude::PreludeError &e) {
                if ( e.GetCode() == PRELUDE_ERROR_EOF )
                        return 0;
                else {
                        SWIG_exception(SWIG_RuntimeError, e.what());
                        SWIG_fail;
                }
        }
}


%extend Prelude::IDMEF {
        void Write(void *nocast_p) {
                self->_genericWrite(_cb_lua_write, nocast_p);
        }


        int Read(void *nocast_p) {
                self->_genericRead(_cb_lua_read, nocast_p);
                return 1;
        }
}


%fragment("SWIG_NewPointerObj", "header") {
#define SWIG_NewPointerObj(obj, objtype, val) _SWIG_Prelude_NewPointerObj((lua_State *) extra, obj, objtype, val);
}

%fragment("SWIG_FromCharPtr", "header") {
#define SWIG_FromCharPtr(result) str2lua((lua_State *) extra, result)
}

%fragment("SWIG_FromCharPtrAndSize", "header") {
#define SWIG_FromCharPtrAndSize(result, len) strsize2lua((lua_State *) extra, result, len)
}

%fragment("SWIG_From_float", "header") {
#define SWIG_From_float(result) integer2lua((lua_State *) extra, result)
}

%fragment("SWIG_From_int", "header") {
#define SWIG_From_int(result) integer2lua((lua_State *) extra, result)
}

%fragment("SWIG_From_double", "header") {
#define SWIG_From_double(result) integer2lua((lua_State *) extra, result)
}

%fragment("SWIG_From_unsigned_SS_int", "header") {
#define SWIG_From_unsigned_SS_int(result) integer2lua((lua_State *) extra, result)
}

%fragment("SWIG_From_long_SS_long", "header") {
#define SWIG_From_long_SS_long(result) integer2lua((lua_State *) extra, result)
}

%fragment("SWIG_From_unsigned_SS_long_SS_long", "header") {
#define SWIG_From_unsigned_SS_long_SS_long(result) integer2lua((lua_State *) extra, result)
}



%fragment("IDMEFValueList_to_SWIG", "header") {
int IDMEFValue_to_SWIG(const Prelude::IDMEFValue &result, void *extra, TARGET_LANGUAGE_OUTPUT_TYPE ret);

int IDMEFValueList_to_SWIG(const Prelude::IDMEFValue &value, void *extra)
{
        bool is_list;
        int index = 0, ret, unused;
        std::vector<Prelude::IDMEFValue> result = value;
        std::vector<Prelude::IDMEFValue>::const_iterator i;

        lua_newtable((lua_State *) extra);

        for ( i = result.begin(); i != result.end(); i++ ) {
                ret = lua_checkstack((lua_State *) extra, 2);
                if ( ret < 0 )
                        return ret;

                if ( (*i).IsNull() ) {
                        lua_pushnil((lua_State *) extra);
                        lua_rawseti((lua_State *) extra, -2, ++index);
                } else {
                        is_list = (i->GetType() == IDMEFValue::TYPE_LIST);
                        if ( is_list )
                                lua_pushnumber((lua_State *) extra, ++index);

                        ret = IDMEFValue_to_SWIG(*i, extra, &unused);
                        if ( ret < 0 )
                                return -1;

                        if ( is_list )
                                lua_settable((lua_State *) extra, -3);
                        else
                                lua_rawseti((lua_State *) extra, -2, ++index);
                }
        }

        return 1;
}
}

%typemap(out, fragment="IDMEFValue_to_SWIG") Prelude::IDMEFValue {
        int ret, unused;

        if ( $1.IsNull() ) {
                lua_pushnil(L);
                SWIG_arg = 1;
        } else {
                SWIG_arg = IDMEFValue_to_SWIG($1, L, &unused);
                if ( SWIG_arg < 0 ) {
                        std::stringstream s;
                        s << "IDMEFValue typemap does not handle value of type '" << idmef_value_type_to_string((idmef_value_type_id_t) $1.GetType()) << "'";
                        SWIG_exception(SWIG_ValueError, s.str().c_str());
                }
        }
};



#define MAX(x, y) ((x) > (y) ? (x) : (y))
%init {
        int argc = 0, ret;
        static char *argv[1024];

        __initial_thread = (gl_thread_t) gl_thread_self();

        lua_getglobal(L, "arg");
        if ( ! lua_istable(L, -1) )
                return;

        lua_pushnil(L);

        while ( lua_next(L, -2) != 0 ) {
                int idx;
                const char *val;

                idx = lua_tonumber(L, -2);
                val = lua_tostring(L, -1);
                lua_pop(L, 1);

                if ( idx < 0 )
                        continue;

                if ( idx >= ((sizeof(argv) / sizeof(char *)) - 1) )
                        throw PreludeError("Argument index too large");

                argv[idx] = strdup(val);
                argc = MAX(idx, argc);
        }

        argc++;
        argv[argc] = NULL;

        ret = prelude_init(&argc, argv);
        if ( ret < 0 )
                throw PreludeError(ret);
}


